<mxfile host="app.diagrams.net" modified="2023-02-17T19:22:15.391Z" agent="5.0 (Macintosh; Intel Mac OS X 10_15_7) AppleWebKit/537.36 (KHTML, like Gecko) Chrome/110.0.0.0 Safari/537.36" etag="FZu7xahQPXbL4ZQFM4Ro" version="20.8.20" type="gitlab">
  <diagram name="Page-1" id="XgGt-_jaG3A8SkamWDVg">
    <mxGraphModel dx="1887" dy="689" grid="1" gridSize="10" guides="1" tooltips="1" connect="1" arrows="1" fold="1" page="1" pageScale="1" pageWidth="827" pageHeight="1169" math="0" shadow="0">
      <root>
        <mxCell id="0" />
        <mxCell id="1" parent="0" />
        <mxCell id="NcMryciSxYnWQXWZHNMu-2" value="" style="rounded=0;whiteSpace=wrap;html=1;strokeColor=#6C8EBF;" vertex="1" parent="1">
          <mxGeometry x="500" y="180" width="120" height="280" as="geometry" />
        </mxCell>
        <mxCell id="NcMryciSxYnWQXWZHNMu-35" style="edgeStyle=orthogonalEdgeStyle;rounded=1;orthogonalLoop=1;jettySize=auto;html=1;entryX=1;entryY=0.5;entryDx=0;entryDy=0;strokeWidth=2;fontSize=16;startArrow=block;startFill=1;endArrow=block;endFill=1;" edge="1" parent="1" source="NcMryciSxYnWQXWZHNMu-33" target="NcMryciSxYnWQXWZHNMu-8">
          <mxGeometry relative="1" as="geometry" />
        </mxCell>
        <mxCell id="NcMryciSxYnWQXWZHNMu-33" value="" style="rounded=1;whiteSpace=wrap;html=1;fontSize=16;fontColor=#67AB9F;strokeColor=#67AB9F;" vertex="1" parent="1">
          <mxGeometry x="660" y="200" width="240" height="240" as="geometry" />
        </mxCell>
        <mxCell id="NcMryciSxYnWQXWZHNMu-25" value="" style="rounded=1;whiteSpace=wrap;html=1;fontSize=16;fontColor=#B37F4E;strokeColor=#B37F4E;" vertex="1" parent="1">
          <mxGeometry x="-20" y="200" width="120" height="240" as="geometry" />
        </mxCell>
        <mxCell id="NcMryciSxYnWQXWZHNMu-3" value="" style="rounded=0;whiteSpace=wrap;html=1;strokeColor=#6C8EBF;" vertex="1" parent="1">
          <mxGeometry x="140" y="180" width="120" height="280" as="geometry" />
        </mxCell>
        <mxCell id="NcMryciSxYnWQXWZHNMu-18" style="edgeStyle=orthogonalEdgeStyle;rounded=1;orthogonalLoop=1;jettySize=auto;html=1;exitX=0.5;exitY=1;exitDx=0;exitDy=0;entryX=0.5;entryY=0;entryDx=0;entryDy=0;strokeWidth=2;fontSize=16;endArrow=open;endFill=0;shape=link;strokeColor=#6C8EBF;" edge="1" parent="1" source="NcMryciSxYnWQXWZHNMu-1" target="NcMryciSxYnWQXWZHNMu-9">
          <mxGeometry relative="1" as="geometry" />
        </mxCell>
        <mxCell id="NcMryciSxYnWQXWZHNMu-1" value="" style="rounded=0;whiteSpace=wrap;html=1;strokeColor=#6C8EBF;" vertex="1" parent="1">
          <mxGeometry x="280" y="180" width="200" height="280" as="geometry" />
        </mxCell>
        <mxCell id="NcMryciSxYnWQXWZHNMu-17" style="edgeStyle=orthogonalEdgeStyle;rounded=1;orthogonalLoop=1;jettySize=auto;html=1;strokeWidth=2;fontSize=16;endArrow=block;endFill=1;startArrow=block;startFill=1;" edge="1" parent="1" source="VFqyzb8U0QU85YlZDATl-1" target="NcMryciSxYnWQXWZHNMu-8">
          <mxGeometry relative="1" as="geometry" />
        </mxCell>
        <mxCell id="VFqyzb8U0QU85YlZDATl-1" value="&lt;font style=&quot;font-size: 16px;&quot;&gt;Rule Engine&lt;/font&gt;" style="rounded=0;whiteSpace=wrap;html=1;" parent="1" vertex="1">
          <mxGeometry x="320" y="200" width="120" height="60" as="geometry" />
        </mxCell>
        <mxCell id="NcMryciSxYnWQXWZHNMu-14" style="edgeStyle=orthogonalEdgeStyle;rounded=1;orthogonalLoop=1;jettySize=auto;html=1;entryX=1;entryY=0.5;entryDx=0;entryDy=0;strokeWidth=2;fontSize=16;endArrow=block;endFill=1;startArrow=block;startFill=1;" edge="1" parent="1" source="VFqyzb8U0QU85YlZDATl-2" target="NcMryciSxYnWQXWZHNMu-7">
          <mxGeometry relative="1" as="geometry" />
        </mxCell>
        <mxCell id="NcMryciSxYnWQXWZHNMu-16" style="edgeStyle=orthogonalEdgeStyle;rounded=1;orthogonalLoop=1;jettySize=auto;html=1;strokeWidth=2;fontSize=16;endArrow=block;endFill=1;startArrow=block;startFill=1;" edge="1" parent="1" source="VFqyzb8U0QU85YlZDATl-2" target="NcMryciSxYnWQXWZHNMu-8">
          <mxGeometry relative="1" as="geometry" />
        </mxCell>
        <mxCell id="NcMryciSxYnWQXWZHNMu-20" style="edgeStyle=orthogonalEdgeStyle;shape=link;rounded=1;orthogonalLoop=1;jettySize=auto;html=1;entryX=0.5;entryY=1;entryDx=0;entryDy=0;dashed=1;strokeWidth=2;fontSize=16;startArrow=open;startFill=0;endArrow=open;endFill=0;" edge="1" parent="1" source="VFqyzb8U0QU85YlZDATl-2" target="VFqyzb8U0QU85YlZDATl-1">
          <mxGeometry relative="1" as="geometry" />
        </mxCell>
        <mxCell id="VFqyzb8U0QU85YlZDATl-2" value="&lt;font style=&quot;font-size: 16px;&quot;&gt;Device&lt;br&gt;Manager&lt;/font&gt;" style="rounded=0;whiteSpace=wrap;html=1;" parent="1" vertex="1">
          <mxGeometry x="320" y="290" width="120" height="60" as="geometry" />
        </mxCell>
        <mxCell id="NcMryciSxYnWQXWZHNMu-15" style="edgeStyle=orthogonalEdgeStyle;rounded=1;orthogonalLoop=1;jettySize=auto;html=1;entryX=0.5;entryY=1;entryDx=0;entryDy=0;strokeWidth=2;fontSize=16;endArrow=block;endFill=1;startArrow=block;startFill=1;" edge="1" parent="1" source="VFqyzb8U0QU85YlZDATl-3" target="NcMryciSxYnWQXWZHNMu-8">
          <mxGeometry relative="1" as="geometry" />
        </mxCell>
        <mxCell id="NcMryciSxYnWQXWZHNMu-19" style="edgeStyle=orthogonalEdgeStyle;shape=link;rounded=1;orthogonalLoop=1;jettySize=auto;html=1;strokeWidth=2;fontSize=16;startArrow=open;startFill=0;endArrow=open;endFill=0;dashed=1;" edge="1" parent="1" source="VFqyzb8U0QU85YlZDATl-3" target="VFqyzb8U0QU85YlZDATl-2">
          <mxGeometry relative="1" as="geometry" />
        </mxCell>
        <mxCell id="VFqyzb8U0QU85YlZDATl-3" value="&lt;font style=&quot;font-size: 16px;&quot;&gt;Security&lt;br&gt;Service&lt;/font&gt;" style="rounded=0;whiteSpace=wrap;html=1;" parent="1" vertex="1">
          <mxGeometry x="320" y="380" width="120" height="60" as="geometry" />
        </mxCell>
        <mxCell id="NcMryciSxYnWQXWZHNMu-4" value="Microservices" style="text;html=1;align=center;verticalAlign=middle;resizable=0;points=[];autosize=1;strokeColor=none;fillColor=none;fontSize=16;fontColor=#6C8EBF;" vertex="1" parent="1">
          <mxGeometry x="320" y="150" width="120" height="30" as="geometry" />
        </mxCell>
        <mxCell id="NcMryciSxYnWQXWZHNMu-5" value="API Gateway" style="text;html=1;align=center;verticalAlign=middle;resizable=0;points=[];autosize=1;strokeColor=none;fillColor=none;fontSize=16;fontColor=#6C8EBF;" vertex="1" parent="1">
          <mxGeometry x="500" y="150" width="120" height="30" as="geometry" />
        </mxCell>
        <mxCell id="NcMryciSxYnWQXWZHNMu-6" value="Broker" style="text;html=1;align=center;verticalAlign=middle;resizable=0;points=[];autosize=1;strokeColor=none;fillColor=none;fontSize=16;fontColor=#6C8EBF;" vertex="1" parent="1">
          <mxGeometry x="165" y="150" width="70" height="30" as="geometry" />
        </mxCell>
        <mxCell id="NcMryciSxYnWQXWZHNMu-13" style="edgeStyle=orthogonalEdgeStyle;rounded=1;orthogonalLoop=1;jettySize=auto;html=1;entryX=0;entryY=0.5;entryDx=0;entryDy=0;strokeWidth=2;fontSize=16;endArrow=block;endFill=1;" edge="1" parent="1" source="NcMryciSxYnWQXWZHNMu-7" target="VFqyzb8U0QU85YlZDATl-1">
          <mxGeometry relative="1" as="geometry">
            <Array as="points">
              <mxPoint x="200" y="230" />
            </Array>
          </mxGeometry>
        </mxCell>
        <mxCell id="NcMryciSxYnWQXWZHNMu-23" style="edgeStyle=orthogonalEdgeStyle;rounded=1;orthogonalLoop=1;jettySize=auto;html=1;entryX=1;entryY=0.5;entryDx=0;entryDy=0;strokeWidth=2;fontSize=16;startArrow=block;startFill=1;endArrow=block;endFill=1;" edge="1" parent="1" source="NcMryciSxYnWQXWZHNMu-7" target="NcMryciSxYnWQXWZHNMu-21">
          <mxGeometry relative="1" as="geometry" />
        </mxCell>
        <mxCell id="NcMryciSxYnWQXWZHNMu-24" style="edgeStyle=orthogonalEdgeStyle;rounded=1;orthogonalLoop=1;jettySize=auto;html=1;entryX=1;entryY=0.5;entryDx=0;entryDy=0;strokeWidth=2;fontSize=16;startArrow=block;startFill=1;endArrow=block;endFill=1;" edge="1" parent="1" source="NcMryciSxYnWQXWZHNMu-7" target="NcMryciSxYnWQXWZHNMu-22">
          <mxGeometry relative="1" as="geometry" />
        </mxCell>
        <mxCell id="NcMryciSxYnWQXWZHNMu-7" value="Mosquitto&lt;br&gt;(MQTT)" style="whiteSpace=wrap;html=1;aspect=fixed;fontSize=16;" vertex="1" parent="1">
          <mxGeometry x="160" y="280" width="80" height="80" as="geometry" />
        </mxCell>
        <mxCell id="NcMryciSxYnWQXWZHNMu-8" value="Kong" style="whiteSpace=wrap;html=1;aspect=fixed;fontSize=16;" vertex="1" parent="1">
          <mxGeometry x="520" y="280" width="80" height="80" as="geometry" />
        </mxCell>
        <mxCell id="NcMryciSxYnWQXWZHNMu-9" value="" style="whiteSpace=wrap;html=1;aspect=fixed;fontSize=16;strokeColor=#6C8EBF;" vertex="1" parent="1">
          <mxGeometry x="300" y="480" width="160" height="160" as="geometry" />
        </mxCell>
        <mxCell id="NcMryciSxYnWQXWZHNMu-10" value="Postgres" style="shape=datastore;whiteSpace=wrap;html=1;fontSize=16;" vertex="1" parent="1">
          <mxGeometry x="335" y="510" width="90" height="97.5" as="geometry" />
        </mxCell>
        <mxCell id="NcMryciSxYnWQXWZHNMu-11" value="Database" style="text;html=1;align=center;verticalAlign=middle;resizable=0;points=[];autosize=1;strokeColor=none;fillColor=none;fontSize=16;fontColor=#6C8EBF;" vertex="1" parent="1">
          <mxGeometry x="335" y="640" width="90" height="30" as="geometry" />
        </mxCell>
        <mxCell id="NcMryciSxYnWQXWZHNMu-21" value="Sensors" style="ellipse;whiteSpace=wrap;html=1;aspect=fixed;fontSize=16;fillColor=#fff2cc;strokeColor=#d6b656;" vertex="1" parent="1">
          <mxGeometry y="220" width="80" height="80" as="geometry" />
        </mxCell>
        <mxCell id="NcMryciSxYnWQXWZHNMu-22" value="Actuators" style="ellipse;whiteSpace=wrap;html=1;aspect=fixed;fontSize=16;fillColor=#ffe6cc;strokeColor=#d79b00;" vertex="1" parent="1">
          <mxGeometry y="340" width="80" height="80" as="geometry" />
        </mxCell>
        <mxCell id="NcMryciSxYnWQXWZHNMu-27" value="" style="sketch=0;html=1;aspect=fixed;strokeColor=none;shadow=0;align=center;verticalAlign=top;fillColor=#67AB9F;shape=mxgraph.gcp2.phone_android;fontSize=16;" vertex="1" parent="1">
          <mxGeometry x="700.0000000000001" y="240" width="33.6" height="60" as="geometry" />
        </mxCell>
        <mxCell id="NcMryciSxYnWQXWZHNMu-28" value="" style="verticalLabelPosition=bottom;html=1;verticalAlign=top;align=center;strokeColor=none;fillColor=#67AB9F;shape=mxgraph.azure.laptop;pointerEvents=1;fontSize=16;" vertex="1" parent="1">
          <mxGeometry x="689.3" y="350" width="75" height="50" as="geometry" />
        </mxCell>
        <mxCell id="NcMryciSxYnWQXWZHNMu-30" value="" style="verticalLabelPosition=bottom;html=1;verticalAlign=top;align=center;strokeColor=none;fillColor=#67AB9F;shape=mxgraph.azure.computer;pointerEvents=1;fontSize=16;" vertex="1" parent="1">
          <mxGeometry x="790" y="270" width="80" height="80" as="geometry" />
        </mxCell>
        <mxCell id="NcMryciSxYnWQXWZHNMu-36" value="Devices" style="text;html=1;align=center;verticalAlign=middle;resizable=0;points=[];autosize=1;strokeColor=none;fillColor=none;fontSize=16;fontColor=#B37F4E;" vertex="1" parent="1">
          <mxGeometry y="170" width="80" height="30" as="geometry" />
        </mxCell>
        <mxCell id="NcMryciSxYnWQXWZHNMu-37" value="User Devices" style="text;html=1;align=center;verticalAlign=middle;resizable=0;points=[];autosize=1;strokeColor=none;fillColor=none;fontSize=16;fontColor=#67AB9F;" vertex="1" parent="1">
          <mxGeometry x="720" y="170" width="120" height="30" as="geometry" />
        </mxCell>
      </root>
    </mxGraphModel>
  </diagram>
</mxfile>
